%YAML 1.1
%TAG !u! tag:unity3d.com,2011:
--- !u!64 &1329587148066937166
MeshCollider:
  m_ObjectHideFlags: 0
  m_CorrespondingSourceObject: {fileID: 0}
  m_PrefabInstance: {fileID: 0}
  m_PrefabAsset: {fileID: 0}
  m_GameObject: {fileID: 6791972879025716846}
  m_Material: {fileID: 0}
  m_IsTrigger: 0
  m_Enabled: 1
  serializedVersion: 4
  m_Convex: 0
  m_CookingOptions: 30
  m_Mesh: {fileID: 150581138598605843, guid: f947e8d5c2f8d0e4fbd12b972b7d4e5a, type: 3}
--- !u!114 &-7709108668871896657
MonoBehaviour:
  m_ObjectHideFlags: 0
  m_CorrespondingSourceObject: {fileID: 0}
  m_PrefabInstance: {fileID: 0}
  m_PrefabAsset: {fileID: 0}
  m_GameObject: {fileID: 6791972879025716846}
  m_Enabled: 1
  m_EditorHideFlags: 0
  m_Script: {fileID: 11500000, guid: fe01652a192031f2c8bbb1e6f9fb6dda, type: 3}
  m_Name: 
  m_EditorClassIdentifier: 
  id: 
--- !u!1001 &3269615869749454695
PrefabInstance:
  m_ObjectHideFlags: 0
  serializedVersion: 2
  m_Modification:
    m_TransformParent: {fileID: 0}
    m_Modifications:
    - target: {fileID: -4216859302048453862, guid: f947e8d5c2f8d0e4fbd12b972b7d4e5a,
        type: 3}
      propertyPath: m_LocalPosition.x
      value: 0
      objectReference: {fileID: 0}
    - target: {fileID: -4216859302048453862, guid: f947e8d5c2f8d0e4fbd12b972b7d4e5a,
        type: 3}
      propertyPath: m_LocalPosition.y
      value: 0
      objectReference: {fileID: 0}
    - target: {fileID: -4216859302048453862, guid: f947e8d5c2f8d0e4fbd12b972b7d4e5a,
        type: 3}
      propertyPath: m_LocalPosition.z
      value: 0
      objectReference: {fileID: 0}
    - target: {fileID: -4216859302048453862, guid: f947e8d5c2f8d0e4fbd12b972b7d4e5a,
        type: 3}
      propertyPath: m_LocalRotation.x
      value: 0.7071068
      objectReference: {fileID: 0}
    - target: {fileID: -4216859302048453862, guid: f947e8d5c2f8d0e4fbd12b972b7d4e5a,
        type: 3}
      propertyPath: m_LocalRotation.y
      value: 0
      objectReference: {fileID: 0}
    - target: {fileID: -4216859302048453862, guid: f947e8d5c2f8d0e4fbd12b972b7d4e5a,
        type: 3}
      propertyPath: m_LocalRotation.z
      value: 0
      objectReference: {fileID: 0}
    - target: {fileID: -4216859302048453862, guid: f947e8d5c2f8d0e4fbd12b972b7d4e5a,
        type: 3}
      propertyPath: m_LocalRotation.w
      value: 0.7071068
      objectReference: {fileID: 0}
    - target: {fileID: -4216859302048453862, guid: f947e8d5c2f8d0e4fbd12b972b7d4e5a,
        type: 3}
      propertyPath: m_RootOrder
      value: 0
      objectReference: {fileID: 0}
    - target: {fileID: -4216859302048453862, guid: f947e8d5c2f8d0e4fbd12b972b7d4e5a,
        type: 3}
      propertyPath: m_LocalEulerAnglesHint.x
      value: 90
      objectReference: {fileID: 0}
    - target: {fileID: -4216859302048453862, guid: f947e8d5c2f8d0e4fbd12b972b7d4e5a,
        type: 3}
      propertyPath: m_LocalEulerAnglesHint.y
      value: 0
      objectReference: {fileID: 0}
    - target: {fileID: -4216859302048453862, guid: f947e8d5c2f8d0e4fbd12b972b7d4e5a,
        type: 3}
      propertyPath: m_LocalEulerAnglesHint.z
      value: 0
      objectReference: {fileID: 0}
    - target: {fileID: -1504981713932161579, guid: f947e8d5c2f8d0e4fbd12b972b7d4e5a,
        type: 3}
      propertyPath: m_Materials.Array.data[0]
      value: 
      objectReference: {fileID: 2100000, guid: ea1e13ffc71098e4187ffbd457e50818, type: 2}
    - target: {fileID: -927199367670048503, guid: f947e8d5c2f8d0e4fbd12b972b7d4e5a,
        type: 3}
      propertyPath: m_Name
      value: Rubber5 Variant
      objectReference: {fileID: 0}
    - target: {fileID: -927199367670048503, guid: f947e8d5c2f8d0e4fbd12b972b7d4e5a,
        type: 3}
      propertyPath: m_TagString
      value: RubberRing
      objectReference: {fileID: 0}
    m_RemovedComponents: []
  m_SourcePrefab: {fileID: 100100000, guid: f947e8d5c2f8d0e4fbd12b972b7d4e5a, type: 3}
--- !u!1 &6791972879025716846 stripped
GameObject:
  m_CorrespondingSourceObject: {fileID: -927199367670048503, guid: f947e8d5c2f8d0e4fbd12b972b7d4e5a,
    type: 3}
  m_PrefabInstance: {fileID: 3269615869749454695}
  m_PrefabAsset: {fileID: 0}
